…
```r
jk[which(nchar(jk$elector_name) < 4), "filename"]
```

```
## # A tibble: 98 x 1
##    filename         
##    <chr>            
##  1 EACA049PS0049.pdf
##  2 EACA049PS0030.pdf
##  3 EACA049PS0030.pdf
##  4 EACA049PS0030.pdf
##  5 EACA049PS0030.pdf
##  6 EACA049PS0030.pdf
##  7 EACA048PS0061.pdf
##  8 EACA049PS0104.pdf
##  9 EACA049PS0170.pdf
## 10 EACA049PS0080.pdf
## # ... with 88 more rows
```
…
