…
```r
mizoram[which(nchar(mizoram$elector_name) < 4), c("id", "filename")]
```

```
## # A tibble: 70 x 2
##    id         filename        
##    <chr>      <chr>           
##  1 JDF0050377 AC023PART029.pdf
##  2 MWQ0093005 AC034PART013.pdf
##  3 IMS0029850 AC036PART004.pdf
##  4 HJC0111104 AC001PART013.pdf
##  5 ACH0014472 AC001PART013.pdf
##  6 CRG0163311 AC040PART024.pdf
##  7 DSP0200071 AC037PART063.pdf
##  8 DSP0197293 AC037PART010.pdf
##  9 IMS0035535 AC036PART021.pdf
## 10 CZK0175513 AC040PART002.pdf
## # ... with 60 more rows
```
…
