…
```r
andaman[which(nchar(andaman$elector_name) < 4), "filename"]
```

```
## # A tibble: 276 x 1
##    filename    
##    <chr>       
##  1 PART_354.pdf
##  2 PART_354.pdf
##  3 PART_354.pdf
##  4 PART_354.pdf
##  5 PART_354.pdf
##  6 PART_354.pdf
##  7 PART_354.pdf
##  8 PART_354.pdf
##  9 PART_354.pdf
## 10 PART_354.pdf
## # ... with 266 more rows
```
…
