…
```r
dadra[which(nchar(dadra$elector_name) < 4), "filename"]
```

```
## # A tibble: 182 x 1
##    filename        
##    <chr>           
##  1 eng_main_222.pdf
##  2 eng_main_036.pdf
##  3 eng_main_036.pdf
##  4 eng_main_036.pdf
##  5 eng_main_036.pdf
##  6 eng_main_036.pdf
##  7 eng_main_159.pdf
##  8 eng_main_252.pdf
##  9 eng_main_132.pdf
## 10 eng_main_132.pdf
## # ... with 172 more rows
```
…
