…
```r
andhra[which(nchar(andhra$elector_name) < 4), "filename"]
```

```
## # A tibble: 2,306 x 1
##    filename       
##    <chr>          
##  1 S01A156P224.PDF
##  2 S01A156P224.PDF
##  3 S01A163P003.PDF
##  4 S01A163P003.PDF
##  5 S01A146P185.PDF
##  6 S01A109P148.PDF
##  7 S01A157P235.PDF
##  8 S01A156P151.PDF
##  9 S01A172P212.PDF
## 10 S01A146P215.PDF
## # ... with 2,296 more rows
```
…
