…
```r
manipur[which(nchar(manipur$elector_name) < 4), "filename"]
```

```
## # A tibble: 2,641 x 1
##    filename    
##    <chr>       
##  1 A0520029.pdf
##  2 A0580030.pdf
##  3 A0470026.pdf
##  4 A0470026.pdf
##  5 A0470026.pdf
##  6 A0470026.pdf
##  7 A0470026.pdf
##  8 A0470026.pdf
##  9 A0470026.pdf
## 10 A0470026.pdf
## # ... with 2,631 more rows
```
…
