…
```r
arunachal[which(nchar(arunachal$elector_name) < 4), "filename"]
```

```
## # A tibble: 156 x 1
##    filename        
##    <chr>           
##  1 AC008PART034.pdf
##  2 AC008PART034.pdf
##  3 AC008PART034.pdf
##  4 AC008PART034.pdf
##  5 AC001PART013.pdf
##  6 AC003PART011.pdf
##  7 AC008PART031.pdf
##  8 AC008PART031.pdf
##  9 AC008PART031.pdf
## 10 AC008PART031.pdf
## # ... with 146 more rows
```
…
