…
```r
nagaland[which(nchar(nagaland$elector_name) < 4), c("id", "filename")]
```

```
## # A tibble: 5,514 x 2
##    id         filename        
##    <chr>      <chr>           
##  1 GVZ0562942 AC007PART057.pdf
##  2 FKQ0221614 AC016PART001.pdf
##  3 FKQ0222323 AC016PART001.pdf
##  4 FKQ0222729 AC016PART001.pdf
##  5 FKQ0223164 AC016PART001.pdf
##  6 FKQ0224022 AC016PART001.pdf
##  7 FKQ0224170 AC016PART001.pdf
##  8 FKQ0224337 AC016PART001.pdf
##  9 JPS0334466 AC006PART012.pdf
## 10 HQZ0483370 AC012PART009.pdf
## # ... with 5,504 more rows
```
…
