…
```r
puducherry[which(nchar(puducherry$elector_name) < 4), c("id", "filename")]
```

```
## # A tibble: 1,640 x 2
##    id               filename     
##    <chr>            <chr>        
##  1 KXX0226290       eng_22_20.pdf
##  2 AJJ0079186       eng_22_20.pdf
##  3 KXX0218743       eng_22_20.pdf
##  4 TNV0103093       eng_27_27.pdf
##  5 TNV0006254       eng_27_27.pdf
##  6 URI0067637       eng_25_28.pdf
##  7 KCR0193672       eng_28_31.pdf
##  8 NPX0082446       eng_28_31.pdf
##  9 PY/01/015/063676 eng_01_32.pdf
## 10 DGL0189365       eng_01_32.pdf
## # ... with 1,630 more rows
```
…
